<?xml version="1.0" encoding="UTF-8" standalone="no"?>
<!-- Created with Inkscape (http://www.inkscape.org/) -->

<svg
   xmlns:dc="http://purl.org/dc/elements/1.1/"
   xmlns:cc="http://creativecommons.org/ns#"
   xmlns:rdf="http://www.w3.org/1999/02/22-rdf-syntax-ns#"
   xmlns:svg="http://www.w3.org/2000/svg"
   xmlns="http://www.w3.org/2000/svg"
   xmlns:sodipodi="http://sodipodi.sourceforge.net/DTD/sodipodi-0.dtd"
   xmlns:inkscape="http://www.inkscape.org/namespaces/inkscape"
   width="16.61054mm"
   height="16.610893mm"
   viewBox="0 0 16.61054 16.610893"
   version="1.1"
   id="svg2243"
   inkscape:version="0.92.2 5c3e80d, 2017-08-06"
   sodipodi:docname="flight.svg">
  <defs
     id="defs2237">
    <clipPath
       clipPathUnits="userSpaceOnUse"
       id="clipPath178">
      <path
         d="M 0,1232 H 1280 V 0 H 0 Z"
         id="path176"
         inkscape:connector-curvature="0" />
    </clipPath>
  </defs>
  <sodipodi:namedview
     id="base"
     pagecolor="#ffffff"
     bordercolor="#666666"
     borderopacity="1.0"
     inkscape:pageopacity="0.0"
     inkscape:pageshadow="2"
     inkscape:zoom="1.1525391"
     inkscape:cx="-37.574571"
     inkscape:cy="78.609783"
     inkscape:document-units="mm"
     inkscape:current-layer="layer1"
     showgrid="false"
     inkscape:window-width="1920"
     inkscape:window-height="1029"
     inkscape:window-x="0"
     inkscape:window-y="25"
     inkscape:window-maximized="1" />
  <metadata
     id="metadata2240">
    <rdf:RDF>
      <cc:Work
         rdf:about="">
        <dc:format>image/svg+xml</dc:format>
        <dc:type
           rdf:resource="http://purl.org/dc/dcmitype/StillImage" />
        <dc:title></dc:title>
      </cc:Work>
    </rdf:RDF>
  </metadata>
  <g
     inkscape:label="Layer 1"
     inkscape:groupmode="layer"
     id="layer1"
     transform="translate(-74.567912,-153.02128)">
    <g
       id="g174"
       clip-path="url(#clipPath178)"
       transform="matrix(0.35277777,0,0,-0.35277777,-169.14279,571.96273)">
      <g
         id="g180"
         transform="translate(726.6108,1171.5093)">
        <path
           d="m 0,0 -3.401,-3.401 3.38,-14.703 c 0.063,-0.253 -0.042,-0.528 -0.254,-0.697 l -2.704,-2.028 c -0.105,-0.085 -0.253,-0.127 -0.401,-0.127 -0.042,0 -0.084,0 -0.148,0.022 -0.19,0.042 -0.359,0.147 -0.444,0.337 l -5.893,10.732 -5.471,-5.471 1.119,-4.099 c 0.064,-0.232 0,-0.464 -0.169,-0.654 l -2.028,-2.029 c -0.126,-0.126 -0.317,-0.19 -0.486,-0.19 h -0.042 c -0.211,0.022 -0.38,0.106 -0.507,0.275 l -3.992,5.324 -5.324,3.992 c -0.169,0.106 -0.254,0.296 -0.274,0.486 -0.021,0.19 0.063,0.38 0.19,0.528 l 2.028,2.049 c 0.127,0.127 0.317,0.19 0.486,0.19 0.063,0 0.127,0 0.168,-0.021 l 4.099,-1.119 5.471,5.471 -10.731,5.893 c -0.19,0.106 -0.317,0.296 -0.359,0.508 -0.021,0.19 0.042,0.422 0.19,0.57 l 2.704,2.704 c 0.168,0.147 0.422,0.232 0.633,0.168 l 14.048,-3.358 3.381,3.38 C -2.704,6.76 0.676,8.112 2.028,6.76 3.38,5.408 2.028,2.028 0,0"
           style="fill:#918f90;fill-opacity:1;fill-rule:nonzero;stroke:none"
           id="path182"
           inkscape:connector-curvature="0" />
      </g>
      <g
         id="g184"
         transform="translate(714.3755,1185.0796)">
        <path
           d="m 0,0 c -11.619,0 -21.072,-9.453 -21.072,-21.072 0,-11.619 9.453,-21.072 21.072,-21.072 11.62,0 21.072,9.453 21.072,21.072 C 21.072,-9.453 11.62,0 0,0 m 0,-44.615 c -12.981,0 -23.542,10.561 -23.542,23.543 0,12.982 10.561,23.543 23.542,23.543 12.982,0 23.543,-10.561 23.543,-23.543 0,-12.982 -10.561,-23.543 -23.543,-23.543"
           style="fill:#918f90;fill-opacity:1;fill-rule:nonzero;stroke:none"
           id="path186"
           inkscape:connector-curvature="0" />
      </g>
    </g>
  </g>
</svg>
